{
	"name": "basicMetalExtractors",
	"project": "nota_common",
	"types": [ {
		"humanName": "Metal Extractor",
		"id": 102,
		"name": "armmex"
	}, {
		"humanName": "Metal Extractor",
		"id": 299,
		"name": "cormex"
	} ]
}