{
	"name": "factories",
	"project": "nota_common",
	"types": [ {
		"humanName": "Adv Kbot Center",
		"id": 2,
		"name": "ahkbc"
	}, {
		"humanName": "Adv. Aircraft Plant",
		"id": 8,
		"name": "armaap"
	}, {
		"humanName": "Adv. Construction Kbot",
		"id": 10,
		"name": "armack"
	}, {
		"humanName": "Adv. Kbot Lab",
		"id": 14,
		"name": "armalab"
	}, {
		"humanName": "Aircraft Plant",
		"id": 21,
		"name": "armap"
	}, {
		"humanName": "Adv. Vehicle Plant",
		"id": 28,
		"name": "armavp"
	}, {
		"humanName": "Shipyard",
		"id": 49,
		"name": "armcsy"
	}, {
		"humanName": "Anti-gravity hangar",
		"id": 65,
		"name": "armfff"
	}, {
		"humanName": "Pod Factory",
		"id": 81,
		"name": "armhklab"
	}, {
		"humanName": "Hovercraft Platform",
		"id": 85,
		"name": "armhp"
	}, {
		"humanName": "Kbot Lab",
		"id": 89,
		"name": "armlab"
	}, {
		"humanName": "Warp Gate",
		"id": 116,
		"name": "armplab"
	}, {
		"humanName": "Seaplane Platform",
		"id": 117,
		"name": "armplat"
	}, {
		"humanName": "Vehicle Plant",
		"id": 159,
		"name": "armvp"
	}, {
		"humanName": "Adv. Aircraft Plant",
		"id": 210,
		"name": "coraap"
	}, {
		"humanName": "Adv. Kbot Lab",
		"id": 217,
		"name": "coralab"
	}, {
		"humanName": "Aircraft Plant",
		"id": 219,
		"name": "corap"
	}, {
		"humanName": "Adv. Vehicle Plant",
		"id": 223,
		"name": "coravp"
	}, {
		"humanName": "Shipyard",
		"id": 243,
		"name": "corcsy"
	}, {
		"humanName": "Krogoth Gantry",
		"id": 273,
		"name": "corgant"
	}, {
		"humanName": "Galactic Gate",
		"id": 274,
		"name": "corgate"
	}, {
		"humanName": "Hovercraft Platform",
		"id": 283,
		"name": "corhp"
	}, {
		"humanName": "Kbot Lab",
		"id": 290,
		"name": "corlab"
	}, {
		"humanName": "Seaplane Platform",
		"id": 319,
		"name": "corplat"
	}, {
		"humanName": "Covert Ops Center",
		"id": 336,
		"name": "corslab"
	}, {
		"humanName": "Valkyrie Factory",
		"id": 361,
		"name": "corvalkfac"
	}, {
		"humanName": "Vehicle Plant",
		"id": 367,
		"name": "corvp"
	}, {
		"humanName": "Warp Gate",
		"id": 379,
		"name": "hergate"
	} ]
}