{
	"name": "metalMakers",
	"project": "nota_common",
	"types": [ {
		"humanName": "Metal Maker",
		"id": 95,
		"name": "armmakr"
	}, {
		"humanName": "Moho Metal Maker",
		"id": 110,
		"name": "armmmkr"
	}, {
		"humanName": "Metal Maker",
		"id": 296,
		"name": "cormakr"
	}, {
		"humanName": "Moho Metal Maker",
		"id": 308,
		"name": "cormmkr"
	} ]
}