{
	"name": "windGenerators",
	"project": "nota_common",
	"types": [ {
		"humanName": "Wind Generator",
		"id": 163,
		"name": "armwin"
	}, {
		"humanName": "Wind Generator",
		"id": 371,
		"name": "corwin"
	} ]
}